digraph G {
    8 -> 12;
    12 -> 14;
    12 -> 10;
    10 -> 11;
    10 -> 9;
    14 -> 15;
    14 -> 13;

    8 -> 4;
    4 -> 6;
    6 -> 7;    
    6 -> 5;
    4 -> 2;
    2 -> 3;
    2 -> 1;
    
}
